-------------------------------------------------------------------------------
Test set: com.example.javamavenjunithelloworld.HelloTest
-------------------------------------------------------------------------------
Tests run: 4, Failures: 0, Errors: 0, Skipped: 0, Time elapsed: 0.005 s - in com.example.javamavenjunithelloworld.HelloTest
